…
## Explore results

### Convergence


```r
conv <- get_convergence(m)
conv
#> # A tibble: 8,803 × 5
#>    variable_type variable       rhat ess_bulk ess_tail
#>    <chr>         <chr>         <dbl>    <dbl>    <dbl>
#>  1 lp__          lp__           2.19       10       10
#>  2 strata_raw    strata_raw[1]  1.52       10       10
#>  3 strata_raw    strata_raw[2]  1.00       10       10
#>  4 strata_raw    strata_raw[3]  1.06       10       10
#>  5 strata_raw    strata_raw[4]  1.09       10       10
#>  6 strata_raw    strata_raw[5]  1.12       10       10
#>  7 strata_raw    strata_raw[6]  1.22       10       10
#>  8 strata_raw    strata_raw[7]  1.37       10       10
#>  9 strata_raw    strata_raw[8]  1.34       10       10
#> 10 strata_raw    strata_raw[9]  1.17       10       10
#> # … with 8,793 more rows
```
…
